mlr-org – Survival modeling in mlr3 using Bayesian Additive Regression Trees (BART)
…
The median posterior survival probabilities for the two patient of interest and the corresponding CI bounds in a tidy format are:

surv_tbl =
  bind_cols(low, med, high) %>%
  pivot_longer(cols = !month, values_to = "surv",
    names_to = c("patient_id", ".value"), names_sep = "_") %>%
  relocate(patient_id)
surv_tbl

# A tibble: 72 × 5
   patient_id month   low   med  high
   <chr>      <int> <dbl> <dbl> <dbl>
 1 5              1 0.713 0.874 0.953
 2 18             1 0.929 0.981 0.996
 3 5              2 0.508 0.767 0.903
 4 18             2 0.863 0.962 0.991
 5 5              3 0.362 0.670 0.855
 6 18             3 0.801 0.945 0.985
 7 5              4 0.244 0.569 0.804
 8 18             4 0.734 0.927 0.977
 9 5              5 0.146 0.465 0.748
10 18             5 0.654 0.901 0.969
# ℹ 62 more rows
…
data_females =
  apply(surv_females, 1, function(row) {
    tibble(
      low = quantile(row, probs = 0.025),
      avg = mean(row),
      high = quantile(row, probs = 0.975)
    )
  }) %>%
  bind_rows() %>%
  add_column(sex = 'female', month = months, .before = 1)

pdp_tbl = bind_rows(data_males, data_females)
pdp_tbl

# A tibble: 72 × 5
   sex   month    low   avg  high
   <chr> <int>  <dbl> <dbl> <dbl>
 1 male      1 0.836  0.942 0.981
 2 male      2 0.704  0.889 0.963
 3 male      3 0.587  0.839 0.943
 4 male      4 0.488  0.788 0.924
 5 male      5 0.392  0.732 0.897
 6 male      6 0.304  0.663 0.860
 7 male      7 0.234  0.601 0.829
 8 male      8 0.172  0.550 0.799
 9 male      9 0.130  0.503 0.766
10 male     10 0.0945 0.455 0.733
# ℹ 62 more rows
…
